Course notes from MITx 14.310x Data Analysis for Social Scientists (EdX)
…
arrange(papers,desc(cites), title)

## # A tibble: 4,182 x 22
##    journal  year cites title au1   au2   au3   female1 female2 female3
##    <chr>   <int> <int> <chr> <chr> <chr> <chr>   <int>   <int>   <int>
##  1 Econom~  1980  2251 A He~ Whit~ <NA>  <NA>        0      NA      NA
##  2 Econom~  1979  2227 Pros~ Kahn~ Tver~ <NA>        0       0      NA
##  3 Econom~  1987  2164 Co-i~ Engl~ Gran~ <NA>        0       0      NA
##  4 Econom~  1979  1602 Samp~ Heck~ <NA>  <NA>        0      NA      NA
##  5 Econom~  1978  1217 Spec~ Haus~ <NA>  <NA>        0      NA      NA
##  6 Econom~  1982  1077 Auto~ Engl~ <NA>  <NA>        0      NA      NA
##  7 Econom~  1981  1031 Like~ Dick~ Full~ <NA>        0       0      NA
##  8 Econom~  1982   983 Larg~ Hans~ <NA>  <NA>        0      NA      NA
##  9 Econom~  1980   864 Macr~ Sims~ <NA>  <NA>        0      NA      NA
## 10 Econom~  1982   563 Time~ Kydl~ Pres~ <NA>        0       0      NA
## # ... with 4,172 more rows, and 12 more variables: page <int>,
## #   order <int>, nauthor <int>, past5 <dbl>, aflpn90 <dbl>, spage <int>,
## #   field <int>, subfld <int>, aulpn90 <dbl>, aulpn80 <dbl>,
## #   aulpn70 <dbl>, lcites <dbl>

papers %>%
  filter(cites >= 100) 

## # A tibble: 205 x 22
##    journal  year cites title au1   au2   au3   female1 female2 female3
##    <chr>   <int> <int> <chr> <chr> <chr> <chr>   <int>   <int>   <int>
##  1 Americ~  1994   117 Is I~ Pers~ Tabe~ <NA>        0       0      NA
##  2 Econom~  1971   149 Furt~ Nerl~ <NA>  <NA>        0      NA      NA
##  3 Econom~  1971   170 The ~ Madd~ <NA>  <NA>       NA      NA      NA
##  4 Econom~  1971   155 Inve~ Luca~ Pres~ <NA>        0       0      NA
##  5 Econom~  1971   139 Some~ Crag~ <NA>  <NA>        0      NA      NA
##  6 Econom~  1971   108 Iden~ Roth~ <NA>  <NA>        0      NA      NA
##  7 Econom~  1972   164 Meth~ Fair~ Jaff~ <NA>        0       0      NA
##  8 Econom~  1972   150 Exis~ Radn~ <NA>  <NA>        0      NA      NA
##  9 Econom~  1973   361 Mani~ Gibb~ <NA>  <NA>        0      NA      NA
## 10 Econom~  1973   107 On a~ Kram~ <NA>  <NA>        0      NA      NA
## # ... with 195 more rows, and 12 more variables: page <int>, order <int>,
## #   nauthor <int>, past5 <dbl>, aflpn90 <dbl>, spage <int>, field <int>,
## #   subfld <int>, aulpn90 <dbl>, aulpn80 <dbl>, aulpn70 <dbl>,
## #   lcites <dbl>
…
